﻿[
  {
    "outputFile": "Scripts/bundles/notes.min.js",
    "inputFile": "Scripts/bundles/notes.js"
  },
  {
    "outputFile": "Styles/notes/app.css",
    "inputFile": "Styles/notes/app.scss"
  },
  {
    "outputFile": "Styles/notes/custom.css",
    "inputFile": "Styles/notes/custom.less"
  },
  {
    "outputFile": "Styles/notes/login.css",
    "inputFile": "Styles/notes/login.scss"
  },
  {
    "outputFile": "Styles/login/login.css",
    "inputFile": "Styles/login/login.less"
  },
  {
    "outputFile": "Styles/$$/$$exceptions.css",
    "inputFile": "Styles/$$/$$exceptions.less"
  },
  {
    "outputFile": "Styles/notes/notes.css",
    "inputFile": "Styles/notes/notes.less"
  },
  {
    "outputFile": "css/app.css",
    "inputFile": "css/app.less"
  }
]