import environmentConfig from '@src/services/environmentConfig';
import { MongoClient } from 'mongodb';
import csvtojson from 'csvtojson';

const addUsers = async () => {
  // const converter = csvtojson();

  // const csvUsers = await converter.fromFile('/Users/johnny.quesada/Documents/GitHub/personal/sample-react-page/master/server/src/users.csv');

  // const users = csvUsers.map((item) => {
  //   const [key] = Object.keys(item);
  //   const values = item[key].split(';');
  //   const props = key.split(';');

  //   const user = props.reduce((acumulator, property, index) => ({
  //     ...acumulator,
  //     [property.trim()]: values[index],
  //   }), {});

  //   return user;
  // });

  const client = await MongoClient.connect(environmentConfig.CONNECTION_STRING_MONGO, { useUnifiedTopology: true });
  const database = client.db('sample');

  const usersCollection = await database.collection('users');
  const user = await usersCollection.findOne({
    Username: 'johnny-qc',
  });

  console.log(user);

  // const user = await usersCollection.findOne({
  //   Identifier: '9012',
  // });

  // usersCollection.updateOne({
  //   Identifier: '9012',
  // }, {
  //   $set: {
  //     contactInformation: {
  //       cellphone: '+50684091035',
  //       email: 'johnny-qc',
  //     },
  //     socialMedia: ['facebook', 'LinkedIn'],
  //     Username: 'johnny-qc',
  //   },
  // });

  // console.log(user);

  // usersCollection.insertMany(users);

  // const user = await usersCollection.insertOne({
  //   password: '123',
  //   username: 'johnny',
  // });

  // const user = await usersCollection.findOne({
  //   username: 'johnny',
  // });

  // if (user) {
  //   await usersCollection.deleteOne({
  //     _id: user._id,
  //   });
  // }

  await client.close();
};

addUsers();
